experiemnt_ten/MyCounter/MyCounter.sim/sim_1/behav/xsim/simulate.log
Time resolution is 1 ps
Time=                   0 SW=00e0 AN=1110 SEGMENT=11000000 LED=0
Time=                5000 SW=00e0 AN=1110 SEGMENT=11111001 LED=0
Time=               85000 SW=00e0 AN=1110 SEGMENT=10100100 LED=0
Time=              165000 SW=00e0 AN=1110 SEGMENT=10110000 LED=0
Time=              245000 SW=00e0 AN=1110 SEGMENT=10011001 LED=0
Time=              325000 SW=00e0 AN=1110 SEGMENT=10010010 LED=0
Time=              405000 SW=00e0 AN=1110 SEGMENT=10000010 LED=0
Time=              485000 SW=00e0 AN=1110 SEGMENT=11111000 LED=0
Time=              565000 SW=00e0 AN=1110 SEGMENT=10000000 LED=0
Time=              645000 SW=00e0 AN=1110 SEGMENT=10010000 LED=0
Time=              725000 SW=00e0 AN=1110 SEGMENT=10001000 LED=0
Time=              805000 SW=00e0 AN=1110 SEGMENT=10000011 LED=0
Time=              885000 SW=00e0 AN=1110 SEGMENT=11000110 LED=0
Time=              965000 SW=00e0 AN=1110 SEGMENT=10100001 LED=0
