experiemnt_ten/MyCounter/MyCounter.sim/sim_1/behav/xsim/top_tb.vcd
$date
   Wed Apr 23 16:09:49 2025
$end

$version
  2024.2.0
  $dumpfile ("top_tb.vcd") 
$end

$timescale
  1ps
$end

$scope module Top_testbench $end
$var reg 1 ! clk $end
$var reg 16 " SW [15:0] $end
$var wire 4 # AN [3:0] $end
$var wire 8 $ SEGMENT [7:0] $end
$var wire 1 % LED $end
$scope module Top_uut $end
$var wire 1 & clk $end
$var wire 16 ' SW [15:0] $end
$var wire 4 # AN [3:0] $end
$var wire 8 $ SEGMENT [7:0] $end
$var wire 1 % LED $end
$var wire 1 ( clk_1s $end
$var wire 1 ) QA $end
$var wire 1 * QB $end
$var wire 1 + QC $end
$var wire 1 , QD $end
$var wire 1 - RC $end
$scope module c0 $end
$var wire 1 & clk $end
$var reg 1 . clk_1s $end
$var reg 32 / cnt [31:0] $end
$upscope $end
$scope module c1 $end
$var wire 1 ( clk $end
$var wire 1 - RC $end
$var wire 1 ) QA $end
$var wire 1 * QB $end
$var wire 1 + QC $end
$var wire 1 , QD $end
$var wire 1 0 QD_temp $end
$var wire 1 1 QC_temp $end
$var wire 1 2 QB_temp $end
$var wire 1 3 QA_temp $end
$var wire 1 4 s0 $end
$var wire 1 5 s1 $end
$var wire 1 6 s2 $end
$var wire 1 7 s3 $end
$scope module DIG_D_FF_1bit_i0 $end
$var wire 1 4 D $end
$var wire 1 ( C $end
$var wire 1 3 Q $end
$var wire 1 8 \~Q  $end
$var reg 1 9 state $end
$upscope $end
$scope module DIG_D_FF_1bit_i1 $end
$var wire 1 5 D $end
$var wire 1 ( C $end
$var wire 1 2 Q $end
$var wire 1 : \~Q  $end
$var reg 1 ; state $end
$upscope $end
$scope module DIG_D_FF_1bit_i2 $end
$var wire 1 6 D $end
$var wire 1 ( C $end
$var wire 1 1 Q $end
$var wire 1 < \~Q  $end
$var reg 1 = state $end
$upscope $end
$scope module DIG_D_FF_1bit_i3 $end
$var wire 1 7 D $end
$var wire 1 ( C $end
$var wire 1 0 Q $end
$var wire 1 7 \~Q  $end
$var reg 1 > state $end
$upscope $end
$upscope $end
$scope module d0 $end
$var wire 16 ' SW [15:0] $end
$var wire 1 ) D3 $end
$var wire 1 * D2 $end
$var wire 1 + D1 $end
$var wire 1 , D0 $end
$var wire 1 - RC $end
$var wire 8 $ SEGMENT [7:0] $end
$var wire 4 # AN [3:0] $end
$var wire 1 % LED $end
$scope module s0 $end
$var wire 1 ) D3 $end
$var wire 1 * D2 $end
$var wire 1 + D1 $end
$var wire 1 , D0 $end
$var wire 1 ? LE $end
$var wire 1 @ point $end
$var wire 1 A a $end
$var wire 1 B b $end
$var wire 1 C c $end
$var wire 1 D d $end
$var wire 1 E e $end
$var wire 1 F f $end
$var wire 1 G g $end
$var wire 1 H p $end
$var wire 1 I s0 $end
$var wire 1 J s1 $end
$var wire 1 K s2 $end
$var wire 1 L s3 $end
$upscope $end
$upscope $end
$upscope $end
$upscope $end
$enddefinitions $end

#0
$dumpvars
0!
b11100000 "
b1110 #
b11000000 $
0%
0&
b11100000 '
0(
0)
0*
0+
0,
0-
0.
bx /
00
01
02
03
04
05
06
17
18
09
1:
0;
1<
0=
0>
0?
0@
0A
0B
0C
0D
0E
0F
1G
1H
1I
1J
1K
1L
$end

#5000
1!
b11111001 $
1&
1(
1,
1.
b0 /
10
16
07
1>
1A
1D
1E
1F
0K

#10000
0!
0&

#15000
1!
1&
b1 /

#20000
0!
0&

#25000
1!
1&
b10 /

#30000
0!
0&

#35000
1!
1&
b11 /

#40000
0!
0&

#45000
1!
1&
0(
0.
b0 /

#50000
0!
0&

#55000
1!
1&
b1 /

#60000
0!
0&

#65000
1!
1&
b10 /

#70000
0!
0&

#75000
1!
1&
b11 /

#80000
0!
0&

#85000
1!
b10100100 $
1&
1(
1+
0,
1.
b0 /
00
11
17
0<
1=
0>
0A
1C
0D
0E
0G
0I
1K

#90000
0!
0&

#95000
1!
1&
b1 /

#100000
0!
0&

#105000
1!
1&
b10 /

#110000
0!
0&

#115000
1!
1&
b11 /

#120000
0!
0&

#125000
1!
1&
0(
0.
b0 /

#130000
0!
0&

#135000
1!
1&
b1 /

#140000
0!
0&

#145000
1!
1&
b10 /

#150000
0!
0&

#155000
1!
1&
b11 /

#160000
0!
0&

#165000
1!
b10110000 $
1&
1(
1,
1.
b0 /
10
15
06
07
1>
0C
1E
0K

#170000
0!
0&

#175000
1!
1&
b1 /

#180000
0!
0&

#185000
1!
1&
b10 /

#190000
0!
0&

#195000
1!
1&
b11 /

#200000
0!
0&

#205000
1!
1&
0(
0.
b0 /

#210000
0!
0&

#215000
1!
1&
b1 /

#220000
0!
0&

#225000
1!
1&
b10 /

#230000
0!
0&

#235000
1!
1&
b11 /

#240000
0!
0&

#245000
1!
b10011001 $
1&
1(
1*
0+
0,
1.
b0 /
00
01
12
17
0:
1;
1<
0=
0>
1A
1D
1E
0F
1I
0J
1K

#250000
0!
0&

#255000
1!
1&
b1 /

#260000
0!
0&

#265000
1!
1&
b10 /

#270000
0!
0&

#275000
1!
1&
b11 /

#280000
0!
0&

#285000
1!
1&
0(
0.
b0 /

#290000
0!
0&

#295000
1!
1&
b1 /

#300000
0!
0&

#305000
1!
1&
b10 /

#310000
0!
0&

#315000
1!
1&
b11 /

#320000
0!
0&

#325000
1!
b10010010 $
1&
1(
1,
1.
b0 /
10
16
07
1>
0A
1B
0D
0K

#330000
0!
0&

#335000
1!
1&
b1 /

#340000
0!
0&

#345000
1!
1&
b10 /

#350000
0!
0&

#355000
1!
1&
b11 /

#360000
0!
0&

#365000
1!
1&
0(
0.
b0 /

#370000
0!
0&

#375000
1!
1&
b1 /

#380000
0!
0&

#385000
1!
1&
b10 /

#390000
0!
0&

#395000
1!
1&
b11 /

#400000
0!
0&

#405000
1!
b10000010 $
1&
1(
1+
0,
1.
b0 /
00
11
17
0<
1=
0>
1B
0E
0I
1K

#410000
0!
0&

#415000
1!
1&
b1 /

#420000
0!
0&

#425000
1!
1&
b10 /

#430000
0!
0&

#435000
1!
1&
b11 /

#440000
0!
0&

#445000
1!
1&
0(
0.
b0 /

#450000
0!
0&

#455000
1!
1&
b1 /

#460000
0!
0&

#465000
1!
1&
b10 /

#470000
0!
0&

#475000
1!
1&
b11 /

#480000
0!
0&

#485000
1!
b11111000 $
1&
1(
1,
1.
b0 /
10
14
05
06
07
1>
0B
1D
1E
1F
1G
0K

#490000
0!
0&

#495000
1!
1&
b1 /

#500000
0!
0&

#505000
1!
1&
b10 /

#510000
0!
0&

#515000
1!
1&
b11 /

#520000
0!
0&

#525000
1!
1&
0(
0.
b0 /

#530000
0!
0&

#535000
1!
1&
b1 /

#540000
0!
0&

#545000
1!
1&
b10 /

#550000
0!
0&

#555000
1!
1&
b11 /

#560000
0!
0&

#565000
1!
b10000000 $
1&
1(
1)
0*
0+
0,
1.
b0 /
00
01
02
13
17
08
19
1:
0;
1<
0=
0>
0D
0E
0F
0G
1I
1J
1K
0L

#570000
0!
0&

#575000
1!
1&
b1 /

#580000
0!
0&

#585000
1!
1&
b10 /

#590000
0!
0&

#595000
1!
1&
b11 /

#600000
0!
0&

#605000
1!
1&
0(
0.
b0 /

#610000
0!
0&

#615000
1!
1&
b1 /

#620000
0!
0&

#625000
1!
1&
b10 /

#630000
0!
0&

#635000
1!
1&
b11 /

#640000
0!
0&

#645000
1!
b10010000 $
1&
1(
1,
1.
b0 /
10
16
07
1>
1E
0K

#650000
0!
0&

#655000
1!
1&
b1 /

#660000
0!
0&

#665000
1!
1&
b10 /

#670000
0!
0&

#675000
1!
1&
b11 /

#680000
0!
0&

#685000
1!
1&
0(
0.
b0 /

#690000
0!
0&

#695000
1!
1&
b1 /

#700000
0!
0&

#705000
1!
1&
b10 /

#710000
0!
0&

#715000
1!
1&
b11 /

#720000
0!
0&

#725000
1!
b10001000 $
1&
1(
1+
0,
1.
b0 /
00
11
17
0<
1=
0>
1D
0E
0I
1K

#730000
0!
0&

#735000
1!
1&
b1 /

#740000
0!
0&

#745000
1!
1&
b10 /

#750000
0!
0&

#755000
1!
1&
b11 /

#760000
0!
0&

#765000
1!
1&
0(
0.
b0 /

#770000
0!
0&

#775000
1!
1&
b1 /

#780000
0!
0&

#785000
1!
1&
b10 /

#790000
0!
0&

#795000
1!
1&
b11 /

#800000
0!
0&

#805000
1!
b10000011 $
1&
1(
1,
1.
b0 /
10
15
06
07
1>
1A
1B
0D
0K

#810000
0!
0&

#815000
1!
1&
b1 /

#820000
0!
0&

#825000
1!
1&
b10 /

#830000
0!
0&

#835000
1!
1&
b11 /

#840000
0!
0&

#845000
1!
1&
0(
0.
b0 /

#850000
0!
0&

#855000
1!
1&
b1 /

#860000
0!
0&

#865000
1!
1&
b10 /

#870000
0!
0&

#875000
1!
1&
b11 /

#880000
0!
0&

#885000
1!
b11000110 $
1&
1(
1*
0+
0,
1.
b0 /
00
01
12
17
0:
1;
1<
0=
0>
0A
1B
1C
1G
1I
0J
1K

#890000
0!
0&

#895000
1!
1&
b1 /

#900000
0!
0&

#905000
1!
1&
b10 /

#910000
0!
0&

#915000
1!
1&
b11 /

#920000
0!
0&

#925000
1!
1&
0(
0.
b0 /

#930000
0!
0&

#935000
1!
1&
b1 /

#940000
0!
0&

#945000
1!
1&
b10 /

#950000
0!
0&

#955000
1!
1&
b11 /

#960000
0!
0&

#965000
1!
b10100001 $
1&
1(
1,
1.
b0 /
10
16
07
1>
1A
0B
0C
1F
0G
0K

#970000
0!
0&

#975000
1!
1&
b1 /

#980000
0!
0&

#985000
1!
1&
b10 /

#990000
0!
0&

#995000
1!
1&
b11 /

